\relax 
\providecommand\HyperFirstAtBeginDocument{\AtBeginDocument}
\HyperFirstAtBeginDocument{\ifx\hyper@anchor\@undefined
\global\let\oldcontentsline\contentsline
\gdef\contentsline#1#2#3#4{\oldcontentsline{#1}{#2}{#3}}
\global\let\oldnewlabel\newlabel
\gdef\newlabel#1#2{\newlabelxx{#1}#2}
\gdef\newlabelxx#1#2#3#4#5#6{\oldnewlabel{#1}{{#2}{#3}}}
\AtEndDocument{\ifx\hyper@anchor\@undefined
\let\contentsline\oldcontentsline
\let\newlabel\oldnewlabel
\fi}
\fi}
\global\let\hyper@last\relax 
\gdef\HyperFirstAtBeginDocument#1{#1}
\providecommand\HyField@AuxAddToFields[1]{}
\select@language{english}
\@writefile{toc}{\select@language{english}}
\@writefile{lof}{\select@language{english}}
\@writefile{lot}{\select@language{english}}
\@writefile{toc}{\contentsline {section}{\numberline {I}Introduction}{1}{section.1}}
\@writefile{toc}{\contentsline {section}{\numberline {II}Manipulator Design}{1}{section.2}}
\@writefile{toc}{\contentsline {subsection}{\numberline {\unhbox \voidb@x \hbox {II-A}}End Effector}{1}{subsection.2.1}}
\newlabel{sec:EE}{{\unhbox \voidb@x \hbox {II-A}}{1}{End Effector\relax }{subsection.2.1}{}}
\@writefile{lof}{\contentsline {figure}{\numberline {1}{\ignorespaces Schematic diagrams of the end effector mechanism in open (left) and closed (right) positions.\relax }}{1}{figure.caption.1}}
\providecommand*\caption@xref[2]{\@setref\relax\@undefined{#1}}
\newlabel{fig:EE1}{{1}{1}{Schematic diagrams of the end effector mechanism in open (left) and closed (right) positions.\relax \relax }{figure.caption.1}{}}
\@writefile{lof}{\contentsline {figure}{\numberline {2}{\ignorespaces Rendering of the end effector in a closed position.\relax }}{2}{figure.caption.2}}
\newlabel{fig:EE2}{{2}{2}{Rendering of the end effector in a closed position.\relax \relax }{figure.caption.2}{}}
\@writefile{lot}{\contentsline {table}{\numberline {I}{\ignorespaces List of important dimensions relating to the end effector.\relax }}{2}{table.caption.3}}
\newlabel{tab:EEdim}{{I}{2}{List of important dimensions relating to the end effector.\relax \relax }{table.caption.3}{}}
\@writefile{lof}{\contentsline {figure}{\numberline {3}{\ignorespaces Important features of the end effector mounting plate\relax }}{3}{figure.caption.4}}
\newlabel{fig:EEtab}{{3}{3}{Important features of the end effector mounting plate\relax \relax }{figure.caption.4}{}}
\@writefile{lof}{\contentsline {figure}{\numberline {4}{\ignorespaces (left) Image of the end effector before capturing the target ball (right) Image of the end effector after capturing the target ball\relax }}{3}{figure.caption.6}}
\newlabel{fig:EEimage}{{4}{3}{(left) Image of the end effector before capturing the target ball (right) Image of the end effector after capturing the target ball\relax \relax }{figure.caption.6}{}}
\@writefile{toc}{\contentsline {subsection}{\numberline {\unhbox \voidb@x \hbox {II-B}}Delta-Arm Manipulator}{3}{subsection.2.2}}
\@writefile{lot}{\contentsline {table}{\numberline {II}{\ignorespaces List of important dimensions relating to the upper arm.\relax }}{4}{table.caption.7}}
\newlabel{tab:armdim}{{II}{4}{List of important dimensions relating to the upper arm.\relax \relax }{table.caption.7}{}}
\@writefile{lof}{\contentsline {figure}{\numberline {5}{\ignorespaces Important features of the upper arm of the delta manipulator\relax }}{4}{figure.caption.8}}
\newlabel{fig:EEtab}{{5}{4}{Important features of the upper arm of the delta manipulator\relax \relax }{figure.caption.8}{}}
\@writefile{lof}{\contentsline {figure}{\numberline {6}{\ignorespaces Example scatter plot of inverse kinematics matlab simulation.\relax }}{4}{figure.caption.10}}
\newlabel{fig:matlab}{{6}{4}{Example scatter plot of inverse kinematics matlab simulation.\relax \relax }{figure.caption.10}{}}
\@writefile{toc}{\contentsline {subsection}{\numberline {\unhbox \voidb@x \hbox {II-C}}Mounting Plate}{4}{subsection.2.3}}
\@writefile{lof}{\contentsline {figure}{\numberline {7}{\ignorespaces Important features of the end effector mounting plate\relax }}{5}{figure.caption.11}}
\newlabel{fig:plat}{{7}{5}{Important features of the end effector mounting plate\relax \relax }{figure.caption.11}{}}
\@writefile{toc}{\contentsline {subsection}{\numberline {\unhbox \voidb@x \hbox {II-D}}Design Modifications}{5}{subsection.2.4}}
\@writefile{lof}{\contentsline {figure}{\numberline {8}{\ignorespaces Images of the final knee joint (left) and ankle joint (right) of the delta arm manipulator\relax }}{5}{figure.caption.13}}
\newlabel{fig:joints}{{8}{5}{Images of the final knee joint (left) and ankle joint (right) of the delta arm manipulator\relax \relax }{figure.caption.13}{}}
\@writefile{toc}{\contentsline {section}{\numberline {III}Manipulator Electronics and Sensor Systems}{6}{section.3}}
\@writefile{toc}{\contentsline {subsection}{\numberline {\unhbox \voidb@x \hbox {III-A}}Diagram of electronics and sensor systems}{6}{subsection.3.1}}
\@writefile{toc}{\contentsline {subsection}{\numberline {\unhbox \voidb@x \hbox {III-B}}Kinematics test}{6}{subsection.3.2}}
\@writefile{lof}{\contentsline {figure}{\numberline {9}{\ignorespaces (left) Workspace of our manipulator, points in blue are in reachable workspace and red are unreachable (right) Top view, shows the workspace limited by landing gear.\relax }}{6}{figure.caption.14}}
\newlabel{fig:kin_plots}{{9}{6}{(left) Workspace of our manipulator, points in blue are in reachable workspace and red are unreachable (right) Top view, shows the workspace limited by landing gear.\relax \relax }{figure.caption.14}{}}
\newlabel{eq:pwm_eq}{{1}{6}{Kinematics test\relax }{equation.3.1}{}}
\@writefile{toc}{\contentsline {subsection}{\numberline {\unhbox \voidb@x \hbox {III-C}}Pixy data integration}{6}{subsection.3.3}}
\@writefile{lof}{\contentsline {figure}{\numberline {10}{\ignorespaces Table showing the PWM corresponding to lower limit of servo, $0\textdegree $, $90\textdegree $ and PWM per degree\relax }}{6}{figure.caption.15}}
\newlabel{fig:pwmservo}{{10}{6}{Table showing the PWM corresponding to lower limit of servo, $0\textdegree $, $90\textdegree $ and PWM per degree\relax \relax }{figure.caption.15}{}}
\@writefile{lof}{\contentsline {figure}{\numberline {11}{\ignorespaces (left) Target pattern used in pixy camera calibration with target frame and color codes (right)Picture of the actual pattern used\relax }}{7}{figure.caption.18}}
\newlabel{fig:target_pattern}{{11}{7}{(left) Target pattern used in pixy camera calibration with target frame and color codes (right)Picture of the actual pattern used\relax \relax }{figure.caption.18}{}}
\@writefile{toc}{\contentsline {subsection}{\numberline {\unhbox \voidb@x \hbox {III-D}}Pixy Calibration}{7}{subsection.3.4}}
\@writefile{toc}{\contentsline {subsubsection}{\numberline {\unhbox \voidb@x \hbox {III-D}1}Relevant co-ordinate frames}{7}{subsubsection.3.4.1}}
\@writefile{lof}{\contentsline {figure}{\numberline {12}{\ignorespaces Relevant frames in pixy camera calibration\relax }}{8}{figure.caption.19}}
\newlabel{fig:frames}{{12}{8}{Relevant frames in pixy camera calibration\relax \relax }{figure.caption.19}{}}
\newlabel{eq:p2qeq}{{2}{8}{Relevant co-ordinate frames\relax }{equation.3.2}{}}
\@writefile{toc}{\contentsline {subsubsection}{\numberline {\unhbox \voidb@x \hbox {III-D}2}Calibration for Z height}{8}{subsubsection.3.4.2}}
\newlabel{eq:line}{{3}{8}{Calibration for Z height\relax }{equation.3.3}{}}
\@writefile{toc}{\contentsline {subsubsection}{\numberline {\unhbox \voidb@x \hbox {III-D}3}Process of obtaining position of target}{8}{subsubsection.3.4.3}}
\@writefile{toc}{\contentsline {paragraph}{\numberline {\unhbox \voidb@x \hbox {III-D}3a}Step 1}{8}{paragraph.3.4.3.1}}
\newlabel{table:zht}{{\caption@xref {table:zht}{ on input line 473}}{9}{Calibration for Z height\relax }{figure.caption.20}{}}
\@writefile{lof}{\contentsline {figure}{\numberline {13}{\ignorespaces (left) Table showing pixel to inch ratios for different heights (right) Plot for Z height Vs Pixel to inch ratio\relax }}{9}{figure.caption.20}}
\newlabel{fig:ptwtable}{{13}{9}{(left) Table showing pixel to inch ratios for different heights (right) Plot for Z height Vs Pixel to inch ratio\relax \relax }{figure.caption.20}{}}
\@writefile{loa}{\contentsline {algorithm}{\numberline {1}{\ignorespaces Pseudocode for Z height estimation\relax }}{9}{algorithm.1}}
\newlabel{alg:Zest}{{1}{9}{Pseudocode for Z height estimation\relax \relax }{algorithm.1}{}}
\@writefile{toc}{\contentsline {paragraph}{\numberline {\unhbox \voidb@x \hbox {III-D}3b}Step 2}{9}{paragraph.3.4.3.2}}
\@writefile{toc}{\contentsline {paragraph}{\numberline {\unhbox \voidb@x \hbox {III-D}3c}Step 3}{9}{paragraph.3.4.3.3}}
\@writefile{loa}{\contentsline {algorithm}{\numberline {2}{\ignorespaces Pseudocode for Target location in pixy frame\relax }}{10}{algorithm.2}}
\newlabel{alg:pixPosest}{{2}{10}{Pseudocode for Target location in pixy frame\relax \relax }{algorithm.2}{}}
\@writefile{toc}{\contentsline {subsection}{\numberline {\unhbox \voidb@x \hbox {III-E}}Data filtering scheme}{10}{subsection.3.5}}
\newlabel{fig:filt1}{{14(a)}{10}{Subfigure 14(a)\relax }{subfigure.14.1}{}}
\newlabel{sub@fig:filt1}{{(a)}{10}{Subfigure 14(a)\relax }{subfigure.14.1}{}}
\newlabel{fig:filt2}{{14(b)}{10}{Subfigure 14(b)\relax }{subfigure.14.2}{}}
\newlabel{sub@fig:filt2}{{(b)}{10}{Subfigure 14(b)\relax }{subfigure.14.2}{}}
\@writefile{lof}{\contentsline {figure}{\numberline {14}{\ignorespaces Simulation results of different filters\relax }}{10}{figure.caption.21}}
\@writefile{lof}{\contentsline {subfigure}{\numberline{(a)}{\ignorespaces {Raw and filtered data}}}{10}{figure.caption.21}}
\@writefile{lof}{\contentsline {subfigure}{\numberline{(b)}{\ignorespaces {Zoomed in}}}{10}{figure.caption.21}}
\newlabel{fig:filter}{{14}{10}{Simulation results of different filters\relax \relax }{figure.caption.21}{}}
\newlabel{fig:ff1}{{15(a)}{11}{Subfigure 15(a)\relax }{subfigure.15.1}{}}
\newlabel{sub@fig:ff1}{{(a)}{11}{Subfigure 15(a)\relax }{subfigure.15.1}{}}
\newlabel{fig:ff2}{{15(b)}{11}{Subfigure 15(b)\relax }{subfigure.15.2}{}}
\newlabel{sub@fig:ff2}{{(b)}{11}{Subfigure 15(b)\relax }{subfigure.15.2}{}}
\@writefile{lof}{\contentsline {figure}{\numberline {15}{\ignorespaces Sample gyro data in fixed base test\relax }}{11}{figure.caption.22}}
\@writefile{lof}{\contentsline {subfigure}{\numberline{(a)}{\ignorespaces {Gryo x in fixed base test}}}{11}{figure.caption.22}}
\@writefile{lof}{\contentsline {subfigure}{\numberline{(b)}{\ignorespaces {Gryo x zoomed in}}}{11}{figure.caption.22}}
\newlabel{fig:fixfilt}{{15}{11}{Sample gyro data in fixed base test\relax \relax }{figure.caption.22}{}}
\@writefile{toc}{\contentsline {subsection}{\numberline {\unhbox \voidb@x \hbox {III-F}}Pixy Data Handling}{11}{subsection.3.6}}
\newlabel{fig:p1}{{16(a)}{11}{Subfigure 16(a)\relax }{subfigure.16.1}{}}
\newlabel{sub@fig:p1}{{(a)}{11}{Subfigure 16(a)\relax }{subfigure.16.1}{}}
\newlabel{fig:p2}{{16(b)}{11}{Subfigure 16(b)\relax }{subfigure.16.2}{}}
\newlabel{sub@fig:p2}{{(b)}{11}{Subfigure 16(b)\relax }{subfigure.16.2}{}}
\@writefile{lof}{\contentsline {figure}{\numberline {16}{\ignorespaces Pixy data in fixed base test\relax }}{11}{figure.caption.23}}
\@writefile{lof}{\contentsline {subfigure}{\numberline{(a)}{\ignorespaces {Color object location}}}{11}{figure.caption.23}}
\@writefile{lof}{\contentsline {subfigure}{\numberline{(b)}{\ignorespaces {Target location}}}{11}{figure.caption.23}}
\newlabel{fig:pixy}{{16}{11}{Pixy data in fixed base test\relax \relax }{figure.caption.23}{}}
\@writefile{toc}{\contentsline {section}{\numberline {IV}Manipulator Guidance and Control}{12}{section.4}}
\@writefile{toc}{\contentsline {subsection}{\numberline {\unhbox \voidb@x \hbox {IV-A}}Primitive Behavior}{12}{subsection.4.1}}
\newlabel{sec:pb}{{\unhbox \voidb@x \hbox {IV-A}}{12}{Primitive Behavior\relax }{subsection.4.1}{}}
\@writefile{toc}{\contentsline {subsection}{\numberline {\unhbox \voidb@x \hbox {IV-B}}Guidance and Control Functions}{12}{subsection.4.2}}
\newlabel{sec:GC}{{\unhbox \voidb@x \hbox {IV-B}}{12}{Guidance and Control Functions\relax }{subsection.4.2}{}}
\@writefile{loa}{\contentsline {algorithm}{\numberline {3}{\ignorespaces Pseudocode for \texttt  {setServo} function\relax }}{12}{algorithm.3}}
\newlabel{alg:ss}{{3}{12}{Pseudocode for \texttt {setServo} function\relax \relax }{algorithm.3}{}}
\newlabel{eq:traj}{{4}{12}{Guidance and Control Functions\relax }{equation.4.4}{}}
\@writefile{loa}{\contentsline {algorithm}{\numberline {4}{\ignorespaces Pseudocode for \texttt  {trajectory} function\relax }}{13}{algorithm.4}}
\newlabel{alg:tp}{{4}{13}{Pseudocode for \texttt {trajectory} function\relax \relax }{algorithm.4}{}}
\@writefile{loa}{\contentsline {algorithm}{\numberline {5}{\ignorespaces Pseudocode for \texttt  {follow} function\relax }}{13}{algorithm.5}}
\newlabel{alg:follow}{{5}{13}{Pseudocode for \texttt {follow} function\relax \relax }{algorithm.5}{}}
\@writefile{toc}{\contentsline {subsection}{\numberline {\unhbox \voidb@x \hbox {IV-C}}Autonomous Decision Criteria}{14}{subsection.4.3}}
\newlabel{sec:auto}{{\unhbox \voidb@x \hbox {IV-C}}{14}{Autonomous Decision Criteria\relax }{subsection.4.3}{}}
\newlabel{eq:acc}{{5}{14}{Autonomous Decision Criteria\relax }{equation.4.5}{}}
\@writefile{toc}{\contentsline {subsection}{\numberline {\unhbox \voidb@x \hbox {IV-D}}State Machine}{14}{subsection.4.4}}
\@writefile{toc}{\contentsline {subsection}{\numberline {\unhbox \voidb@x \hbox {IV-E}}User Interface}{14}{subsection.4.5}}
\newlabel{sec:ui}{{\unhbox \voidb@x \hbox {IV-E}}{14}{User Interface\relax }{subsection.4.5}{}}
\@writefile{lof}{\contentsline {figure}{\numberline {17}{\ignorespaces Schematic of the manipulator state machine.\relax }}{15}{figure.caption.24}}
\newlabel{fig:state}{{17}{15}{Schematic of the manipulator state machine.\relax \relax }{figure.caption.24}{}}
\@writefile{toc}{\contentsline {subsection}{\numberline {\unhbox \voidb@x \hbox {IV-F}}LCM and other Software Modules}{15}{subsection.4.6}}
\newlabel{sec:lcm}{{\unhbox \voidb@x \hbox {IV-F}}{15}{LCM and other Software Modules\relax }{subsection.4.6}{}}
\@writefile{loa}{\contentsline {algorithm}{\numberline {6}{\ignorespaces User interface pseudocode\relax }}{16}{algorithm.6}}
\newlabel{alg:ui}{{6}{16}{User interface pseudocode\relax \relax }{algorithm.6}{}}
\@writefile{toc}{\contentsline {section}{\numberline {V}Integrated System Results}{17}{section.5}}
\newlabel{sec:V}{{V}{17}{Integrated System Results\relax }{section.5}{}}
\@writefile{toc}{\contentsline {subsection}{\numberline {\unhbox \voidb@x \hbox {V-A}}Test I: Fixed-base Ball Retrieval}{17}{subsection.5.1}}
\newlabel{fig:fixget1}{{18(a)}{17}{Subfigure 18(a)\relax }{subfigure.18.1}{}}
\newlabel{sub@fig:fixget1}{{(a)}{17}{Subfigure 18(a)\relax }{subfigure.18.1}{}}
\newlabel{fig:fixget2}{{18(b)}{17}{Subfigure 18(b)\relax }{subfigure.18.2}{}}
\newlabel{sub@fig:fixget2}{{(b)}{17}{Subfigure 18(b)\relax }{subfigure.18.2}{}}
\@writefile{lof}{\contentsline {figure}{\numberline {18}{\ignorespaces End effector position and servo angles in Fixed-base ball retrieval\relax }}{17}{figure.caption.25}}
\@writefile{lof}{\contentsline {subfigure}{\numberline{(a)}{\ignorespaces {Fixed-base Retrieve No.1}}}{17}{figure.caption.25}}
\@writefile{lof}{\contentsline {subfigure}{\numberline{(b)}{\ignorespaces {Fixed-base Retrieve No.2}}}{17}{figure.caption.25}}
\newlabel{fig:fixget}{{18}{17}{End effector position and servo angles in Fixed-base ball retrieval\relax \relax }{figure.caption.25}{}}
\@writefile{toc}{\contentsline {subsection}{\numberline {\unhbox \voidb@x \hbox {V-B}}Test II: Fixed-base Ball Dropoff}{17}{subsection.5.2}}
\@writefile{lof}{\contentsline {figure}{\numberline {19}{\ignorespaces End effector position and servo angles in Fixed-base ball dropoff\relax }}{18}{figure.caption.26}}
\@writefile{lof}{\contentsline {subfigure}{\numberline{(a)}{\ignorespaces {Fixed-base Dropoff No.1}}}{18}{figure.caption.26}}
\@writefile{lof}{\contentsline {subfigure}{\numberline{(b)}{\ignorespaces {Fixed-base Dropoff No.2}}}{18}{figure.caption.26}}
\newlabel{fig:fixdrop}{{19}{18}{End effector position and servo angles in Fixed-base ball dropoff\relax \relax }{figure.caption.26}{}}
\@writefile{toc}{\contentsline {subsection}{\numberline {\unhbox \voidb@x \hbox {V-C}}Test III: Hand-carried base Ball Retrieval}{18}{subsection.5.3}}
\@writefile{toc}{\contentsline {subsection}{\numberline {\unhbox \voidb@x \hbox {V-D}}Test IV: Hand-carried base Ball Dropoff}{18}{subsection.5.4}}
\@writefile{toc}{\contentsline {subsection}{\numberline {\unhbox \voidb@x \hbox {V-E}}Test V: Flight Test}{18}{subsection.5.5}}
\newlabel{fig:get1}{{20(a)}{19}{Subfigure 20(a)\relax }{subfigure.20.1}{}}
\newlabel{sub@fig:get1}{{(a)}{19}{Subfigure 20(a)\relax }{subfigure.20.1}{}}
\newlabel{fig:get2}{{20(b)}{19}{Subfigure 20(b)\relax }{subfigure.20.2}{}}
\newlabel{sub@fig:get2}{{(b)}{19}{Subfigure 20(b)\relax }{subfigure.20.2}{}}
\newlabel{fig:get3}{{20(c)}{19}{Subfigure 20(c)\relax }{subfigure.20.3}{}}
\newlabel{sub@fig:get3}{{(c)}{19}{Subfigure 20(c)\relax }{subfigure.20.3}{}}
\newlabel{fig:get4}{{20(d)}{19}{Subfigure 20(d)\relax }{subfigure.20.4}{}}
\newlabel{sub@fig:get4}{{(d)}{19}{Subfigure 20(d)\relax }{subfigure.20.4}{}}
\@writefile{lof}{\contentsline {figure}{\numberline {20}{\ignorespaces Hand-carried base ball retrieval\relax }}{19}{figure.caption.27}}
\@writefile{lof}{\contentsline {subfigure}{\numberline{(a)}{\ignorespaces {Gryo x data}}}{19}{figure.caption.27}}
\@writefile{lof}{\contentsline {subfigure}{\numberline{(b)}{\ignorespaces {Z axis angle}}}{19}{figure.caption.27}}
\@writefile{lof}{\contentsline {subfigure}{\numberline{(c)}{\ignorespaces {Pixy frame target location}}}{19}{figure.caption.27}}
\@writefile{lof}{\contentsline {subfigure}{\numberline{(d)}{\ignorespaces {EE position and servo angles}}}{19}{figure.caption.27}}
\newlabel{fig:movget}{{20}{19}{Hand-carried base ball retrieval\relax \relax }{figure.caption.27}{}}
\newlabel{fig:drop1}{{21(a)}{19}{Subfigure 21(a)\relax }{subfigure.21.1}{}}
\newlabel{sub@fig:drop1}{{(a)}{19}{Subfigure 21(a)\relax }{subfigure.21.1}{}}
\newlabel{fig:drop2}{{21(b)}{19}{Subfigure 21(b)\relax }{subfigure.21.2}{}}
\newlabel{sub@fig:drop2}{{(b)}{19}{Subfigure 21(b)\relax }{subfigure.21.2}{}}
\@writefile{lof}{\contentsline {figure}{\numberline {21}{\ignorespaces Hand-carried base ball dropoff\relax }}{19}{figure.caption.28}}
\@writefile{lof}{\contentsline {subfigure}{\numberline{(a)}{\ignorespaces {Pixy frame target location}}}{19}{figure.caption.28}}
\@writefile{lof}{\contentsline {subfigure}{\numberline{(b)}{\ignorespaces {EE position and servo angles}}}{19}{figure.caption.28}}
\newlabel{fig:movdrop}{{21}{19}{Hand-carried base ball dropoff\relax \relax }{figure.caption.28}{}}
\newlabel{fig:flight1}{{22(a)}{20}{Subfigure 22(a)\relax }{subfigure.22.1}{}}
\newlabel{sub@fig:flight1}{{(a)}{20}{Subfigure 22(a)\relax }{subfigure.22.1}{}}
\newlabel{fig:flight2}{{22(b)}{20}{Subfigure 22(b)\relax }{subfigure.22.2}{}}
\newlabel{sub@fig:flight2}{{(b)}{20}{Subfigure 22(b)\relax }{subfigure.22.2}{}}
\newlabel{fig:flight3}{{22(c)}{20}{Subfigure 22(c)\relax }{subfigure.22.3}{}}
\newlabel{sub@fig:flight3}{{(c)}{20}{Subfigure 22(c)\relax }{subfigure.22.3}{}}
\@writefile{lof}{\contentsline {figure}{\numberline {22}{\ignorespaces Flight test sensor data\relax }}{20}{figure.caption.29}}
\@writefile{lof}{\contentsline {subfigure}{\numberline{(a)}{\ignorespaces {Gryo x}}}{20}{figure.caption.29}}
\@writefile{lof}{\contentsline {subfigure}{\numberline{(b)}{\ignorespaces {Gyro y}}}{20}{figure.caption.29}}
\@writefile{lof}{\contentsline {subfigure}{\numberline{(c)}{\ignorespaces {Z axis angle}}}{20}{figure.caption.29}}
\newlabel{fig:flight}{{22}{20}{Flight test sensor data\relax \relax }{figure.caption.29}{}}
\@writefile{toc}{\contentsline {section}{\numberline {VI}Conclusion}{21}{section.6}}
\@writefile{toc}{\contentsline {subsection}{\numberline {\unhbox \voidb@x \hbox {VI-A}}Bill of Materials}{22}{subsection.6.1}}
\@writefile{toc}{\contentsline {subsection}{\numberline {\unhbox \voidb@x \hbox {VI-B}}List of LCM data types}{23}{subsection.6.2}}
\newlabel{sec:appB}{{\unhbox \voidb@x \hbox {VI-B}}{23}{List of LCM data types\relax }{subsection.6.2}{}}
